EESchema Schematic File Version 4
EELAYER 30 0
EELAYER END
$Descr A4 11693 8268
encoding utf-8
Sheet 1 1
Title ""
Date ""
Rev ""
Comp ""
Comment1 ""
Comment2 ""
Comment3 ""
Comment4 ""
$EndDescr
$Comp
L Regulator_Linear:L79L05_SO8 U1
U 1 1 5E482FA1
P 2700 2050
F 0 "U1" H 2700 1901 50  0000 C CNN
F 1 "L79L05" H 2700 1810 50  0000 C CNN
F 2 "Package_SO:SOIC-8_3.9x4.9mm_P1.27mm" H 2700 1850 50  0001 C CIN
F 3 "http://www.farnell.com/datasheets/1827870.pdf" H 2700 2100 50  0001 C CNN
	1    2700 2050
	1    0    0    -1  
$EndComp
$Comp
L temp_sens:MCP9510_09 IC1
U 1 1 5E48453F
P 4400 1850
F 0 "IC1" H 4400 2297 60  0000 C CNN
F 1 "MCP9509H" H 4400 2191 60  0000 C CNN
F 2 "Package_TO_SOT_SMD:SOT-23-6_Handsoldering" H 4400 1850 60  0001 C CNN
F 3 "" H 4400 1850 60  0001 C CNN
	1    4400 1850
	-1   0    0    1   
$EndComp
$Comp
L Connector:Screw_Terminal_01x02 J1
U 1 1 5E48E744
P 2150 950
F 0 "J1" V 2114 762 50  0000 R CNN
F 1 "IN" V 2023 762 50  0000 R CNN
F 2 "TerminalBlock_TE-Connectivity:TerminalBlock_TE_282834-2_1x02_P2.54mm_Horizontal" H 2150 950 50  0001 C CNN
F 3 "~" H 2150 950 50  0001 C CNN
	1    2150 950 
	0    -1   -1   0   
$EndComp
$Comp
L q_pmos_sssgdddd:Q_PMOS_SSSGDDDD Q1
U 1 1 5E48B85F
P 5600 1650
F 0 "Q1" H 6088 1696 50  0000 L CNN
F 1 "IRF9393" H 6088 1605 50  0000 L CNN
F 2 "Package_SO:PowerIntegrations_SO-8" H 5800 1750 50  0001 C CNN
F 3 "~" H 5600 1650 50  0001 C CNN
	1    5600 1650
	1    0    0    -1  
$EndComp
$Comp
L Connector:Screw_Terminal_01x02 J2
U 1 1 5E48C7C8
P 6550 950
F 0 "J2" V 6514 762 50  0000 R CNN
F 1 "FAN" V 6423 762 50  0000 R CNN
F 2 "TerminalBlock_TE-Connectivity:TerminalBlock_TE_282834-2_1x02_P2.54mm_Horizontal" H 6550 950 50  0001 C CNN
F 3 "~" H 6550 950 50  0001 C CNN
	1    6550 950 
	0    -1   -1   0   
$EndComp
Wire Wire Line
	2250 1150 2250 1700
Wire Wire Line
	2250 2050 2400 2050
$Comp
L power:GNDD #PWR03
U 1 1 5E48E81B
P 3200 2250
F 0 "#PWR03" H 3200 2000 50  0001 C CNN
F 1 "GNDD" H 3204 2095 50  0000 C CNN
F 2 "" H 3200 2250 50  0001 C CNN
F 3 "" H 3200 2250 50  0001 C CNN
	1    3200 2250
	1    0    0    -1  
$EndComp
$Comp
L power:+12V #PWR01
U 1 1 5E48FF5F
P 1950 1150
F 0 "#PWR01" H 1950 1000 50  0001 C CNN
F 1 "+12V" H 1965 1323 50  0000 C CNN
F 2 "" H 1950 1150 50  0001 C CNN
F 3 "" H 1950 1150 50  0001 C CNN
	1    1950 1150
	1    0    0    -1  
$EndComp
$Comp
L power:+12V #PWR02
U 1 1 5E49054A
P 2700 1500
F 0 "#PWR02" H 2700 1350 50  0001 C CNN
F 1 "+12V" H 2715 1673 50  0000 C CNN
F 2 "" H 2700 1500 50  0001 C CNN
F 3 "" H 2700 1500 50  0001 C CNN
	1    2700 1500
	1    0    0    -1  
$EndComp
$Comp
L power:+12V #PWR04
U 1 1 5E490F02
P 3600 1550
F 0 "#PWR04" H 3600 1400 50  0001 C CNN
F 1 "+12V" H 3615 1723 50  0000 C CNN
F 2 "" H 3600 1550 50  0001 C CNN
F 3 "" H 3600 1550 50  0001 C CNN
	1    3600 1550
	1    0    0    -1  
$EndComp
Wire Wire Line
	5900 1850 5800 1850
Wire Wire Line
	5700 1850 5800 1850
Connection ~ 5800 1850
Wire Wire Line
	5700 1450 5800 1450
Wire Wire Line
	6000 1450 5900 1450
Wire Wire Line
	5900 1450 5800 1450
Connection ~ 5900 1450
Connection ~ 5800 1450
Wire Wire Line
	5400 1650 5050 1650
Wire Wire Line
	6000 1450 6650 1450
Connection ~ 6000 1450
$Comp
L power:+12V #PWR07
U 1 1 5E494B34
P 6150 2000
F 0 "#PWR07" H 6150 1850 50  0001 C CNN
F 1 "+12V" H 6165 2173 50  0000 C CNN
F 2 "" H 6150 2000 50  0001 C CNN
F 3 "" H 6150 2000 50  0001 C CNN
	1    6150 2000
	1    0    0    -1  
$EndComp
Wire Wire Line
	6150 2000 6150 2100
Wire Wire Line
	6150 2100 5800 2100
Wire Wire Line
	5800 2100 5800 1850
NoConn ~ 3900 1850
$Comp
L Device:R_Small R2
U 1 1 5E499523
P 5350 2200
F 0 "R2" V 5546 2200 50  0000 C CNN
F 1 "27R" V 5455 2200 50  0000 C CNN
F 2 "Resistor_SMD:R_1206_3216Metric_Pad1.42x1.75mm_HandSolder" H 5350 2200 50  0001 C CNN
F 3 "~" H 5350 2200 50  0001 C CNN
	1    5350 2200
	0    -1   -1   0   
$EndComp
$Comp
L power:GNDD #PWR06
U 1 1 5E499F6F
P 5500 2300
F 0 "#PWR06" H 5500 2050 50  0001 C CNN
F 1 "GNDD" H 5504 2145 50  0000 C CNN
F 2 "" H 5500 2300 50  0001 C CNN
F 3 "" H 5500 2300 50  0001 C CNN
	1    5500 2300
	1    0    0    -1  
$EndComp
Wire Wire Line
	4900 1850 5500 1850
Wire Wire Line
	3600 1550 3600 1650
Wire Wire Line
	3600 1650 3900 1650
Wire Wire Line
	3600 1650 3600 2050
Wire Wire Line
	3600 2050 3900 2050
Connection ~ 3600 1650
$Comp
L Device:R_Small R1
U 1 1 5E49C263
P 5050 1550
F 0 "R1" H 5109 1596 50  0000 L CNN
F 1 "4k7" H 5109 1505 50  0000 L CNN
F 2 "Resistor_SMD:R_1206_3216Metric_Pad1.42x1.75mm_HandSolder" H 5050 1550 50  0001 C CNN
F 3 "~" H 5050 1550 50  0001 C CNN
	1    5050 1550
	1    0    0    -1  
$EndComp
Connection ~ 5050 1650
Wire Wire Line
	5050 1650 4900 1650
$Comp
L power:+12V #PWR05
U 1 1 5E49C849
P 5050 1400
F 0 "#PWR05" H 5050 1250 50  0001 C CNN
F 1 "+12V" H 5065 1573 50  0000 C CNN
F 2 "" H 5050 1400 50  0001 C CNN
F 3 "" H 5050 1400 50  0001 C CNN
	1    5050 1400
	1    0    0    -1  
$EndComp
Wire Wire Line
	5050 1400 5050 1450
Wire Wire Line
	6550 1150 2250 1150
Connection ~ 2250 1150
Wire Wire Line
	1950 1150 1950 1200
Wire Wire Line
	1950 1200 2150 1200
Wire Wire Line
	2150 1200 2150 1150
Wire Wire Line
	6650 1150 6650 1450
Wire Wire Line
	2700 1500 2700 1700
Wire Wire Line
	3000 2050 3200 2050
Wire Wire Line
	3200 2050 3200 2250
$Comp
L Device:C_Small C2
U 1 1 5E4A7F7E
P 2950 1700
F 0 "C2" V 2721 1700 50  0000 C CNN
F 1 "470nF" V 2812 1700 50  0000 C CNN
F 2 "Capacitor_SMD:C_1206_3216Metric_Pad1.42x1.75mm_HandSolder" H 2950 1700 50  0001 C CNN
F 3 "~" H 2950 1700 50  0001 C CNN
	1    2950 1700
	0    1    1    0   
$EndComp
$Comp
L Device:C_Small C1
U 1 1 5E4A84EE
P 2450 1700
F 0 "C1" V 2221 1700 50  0000 C CNN
F 1 "470nF" V 2312 1700 50  0000 C CNN
F 2 "Capacitor_SMD:C_1206_3216Metric_Pad1.42x1.75mm_HandSolder" H 2450 1700 50  0001 C CNN
F 3 "~" H 2450 1700 50  0001 C CNN
	1    2450 1700
	0    1    1    0   
$EndComp
Wire Wire Line
	3050 1700 3200 1700
Wire Wire Line
	3200 1700 3200 2050
Connection ~ 3200 2050
Wire Wire Line
	2850 1700 2700 1700
Connection ~ 2700 1700
Wire Wire Line
	2700 1700 2700 1750
Wire Wire Line
	2700 1700 2550 1700
Wire Wire Line
	2350 1700 2250 1700
Connection ~ 2250 1700
Wire Wire Line
	2250 1700 2250 2050
Text Label 4250 1150 0    50   ~ 0
0V
Text Notes 3600 2650 0    50   ~ 0
R27=81,5°C\nR77=16,5°C\nHyst=10°C\nGNDD=7V
$Comp
L Device:R_POT_Small RV1
U 1 1 5E4986DF
P 5050 2050
F 0 "RV1" H 4990 2004 50  0000 R CNN
F 1 "50R" H 4990 2095 50  0000 R CNN
F 2 "Potentiometer_SMD:Potentiometer_Bourns_3214J_Horizontal" H 5050 2050 50  0001 C CNN
F 3 "~" H 5050 2050 50  0001 C CNN
	1    5050 2050
	-1   0    0    1   
$EndComp
Wire Wire Line
	5500 1850 5500 2200
Wire Wire Line
	5500 2200 5450 2200
Connection ~ 5500 2200
Wire Wire Line
	5500 2200 5500 2300
Wire Wire Line
	5250 2200 5050 2200
Wire Wire Line
	5050 2200 5050 2150
Wire Wire Line
	4900 2050 4950 2050
$EndSCHEMATC
